…
``` r
dim(subway_file)  
```

    ## [1] 1868   28

``` r
#The dataset contains lines, station names, station latitude, station longitude, routes, entrance type, entry, vending, ADA, ADA notes, and the dimension is 1868x28 #

#Use distinct function, we can get there are totally 465 distinct stations#
distinct(subway_file,line,station_name) 
```

    ## # A tibble: 465 x 2
    ##    line     station_name            
    ##    <chr>    <chr>                   
    ##  1 4 Avenue 25th St                 
    ##  2 4 Avenue 36th St                 
    ##  3 4 Avenue 45th St                 
    ##  4 4 Avenue 53rd St                 
    ##  5 4 Avenue 59th St                 
    ##  6 4 Avenue 77th St                 
    ##  7 4 Avenue 86th St                 
    ##  8 4 Avenue 95th St                 
    ##  9 4 Avenue 9th St                  
    ## 10 4 Avenue Atlantic Av-Barclays Ctr
    ## # ... with 455 more rows
…
    ## [1] 0.09796574

``` r
#We change the file into tidy, and we can get there are 60 stations containing A#
real_data=gather(subway_file,key=route,value=bus_number,route1 :route11)
after_data=distinct(real_data,line,station_name,route,bus_number,ada) 
after_data
```

    ## # A tibble: 5,117 x 5
    ##    line     station_name             ada   route  bus_number
    ##    <chr>    <chr>                    <lgl> <chr>  <chr>     
    ##  1 4 Avenue 25th St                  FALSE route1 R         
    ##  2 4 Avenue 36th St                  FALSE route1 N         
    ##  3 4 Avenue 45th St                  FALSE route1 R         
    ##  4 4 Avenue 53rd St                  FALSE route1 R         
    ##  5 4 Avenue 59th St                  FALSE route1 N         
    ##  6 4 Avenue 77th St                  FALSE route1 R         
    ##  7 4 Avenue 86th St                  FALSE route1 R         
    ##  8 4 Avenue 95th St                  FALSE route1 R         
    ##  9 4 Avenue 9th St                   FALSE route1 F         
    ## 10 4 Avenue Atlantic Av-Barclays Ctr TRUE  route1 B         
    ## # ... with 5,107 more rows
…
Problem 2
=========

``` r
library(tidyverse)
library(readxl)
data_file=
  read_excel("./HealthyHarborWaterWheelTotals2017-9-26.xlsx")  %>%
  janitor::clean_names() %>%
  select(-x_1)                                      ##x_1 represents the columns containing notes##
data_file
```

    ## # A tibble: 360 x 14
    ##    dumpster month  year date                weight_tons volume_cubic_ya~
    ##       <dbl> <chr> <dbl> <dttm>                    <dbl>            <dbl>
    ##  1        1 May    2014 2014-05-16 00:00:00        4.31               18
    ##  2        2 May    2014 2014-05-16 00:00:00        2.74               13
    ##  3        3 May    2014 2014-05-16 00:00:00        3.45               15
    ##  4        4 May    2014 2014-05-17 00:00:00        3.1                15
    ##  5        5 May    2014 2014-05-17 00:00:00        4.06               18
    ##  6        6 May    2014 2014-05-20 00:00:00        2.71               13
    ##  7        7 May    2014 2014-05-21 00:00:00        1.91                8
    ##  8        8 May    2014 2014-05-28 00:00:00        3.7                16
    ##  9       NA May ~    NA NA                        26.0               116
    ## 10        9 June   2014 2014-06-05 00:00:00        2.52               14
    ## # ... with 350 more rows, and 8 more variables: plastic_bottles <dbl>,
    ## #   polystyrene <dbl>, cigarette_butts <dbl>, glass_bottles <dbl>,
    ## #   grocery_bags <dbl>, chip_bags <dbl>, sports_balls <dbl>,
    ## #   homes_powered <dbl>

``` r
##Then I omit rows without value in Dumpster column, and now there are 206 rows left##  
new_file=data_file[!(data_file$dumpster == "" | is.na(data_file$dumpster)), ]
new_file
```

    ## # A tibble: 216 x 14
    ##    dumpster month  year date                weight_tons volume_cubic_ya~
    ##       <dbl> <chr> <dbl> <dttm>                    <dbl>            <dbl>
    ##  1        1 May    2014 2014-05-16 00:00:00        4.31               18
    ##  2        2 May    2014 2014-05-16 00:00:00        2.74               13
    ##  3        3 May    2014 2014-05-16 00:00:00        3.45               15
    ##  4        4 May    2014 2014-05-17 00:00:00        3.1                15
    ##  5        5 May    2014 2014-05-17 00:00:00        4.06               18
    ##  6        6 May    2014 2014-05-20 00:00:00        2.71               13
    ##  7        7 May    2014 2014-05-21 00:00:00        1.91                8
    ##  8        8 May    2014 2014-05-28 00:00:00        3.7                16
    ##  9        9 June   2014 2014-06-05 00:00:00        2.52               14
    ## 10       10 June   2014 2014-06-11 00:00:00        3.76               18
    ## # ... with 206 more rows, and 8 more variables: plastic_bottles <dbl>,
    ## #   polystyrene <dbl>, cigarette_butts <dbl>, glass_bottles <dbl>,
    ## #   grocery_bags <dbl>, chip_bags <dbl>, sports_balls <dbl>,
    ## #   homes_powered <dbl>
…
