…
``` r
library(tidyverse)
answer_hw=tibble(
    x=rnorm(1000,mean=0,sd=1),                    
    y=rnorm(1000,mean=0,sd=1),
    logic_2=x+y>0,
    num_2=as.numeric(logic_2),
    fact_2=as.factor(logic_2)
)
answer_hw
```

    ## # A tibble: 1,000 x 5
    ##          x      y logic_2 num_2 fact_2
    ##      <dbl>  <dbl> <lgl>   <dbl> <fct> 
    ##  1  0.659   1.32  TRUE        1 TRUE  
    ##  2 -1.15    2.00  TRUE        1 TRUE  
    ##  3 -1.00   -1.05  FALSE       0 FALSE 
    ##  4  0.559   0.400 TRUE        1 TRUE  
    ##  5  0.856  -0.258 TRUE        1 TRUE  
    ##  6 -0.0452  1.90  TRUE        1 TRUE  
    ##  7  0.417   0.119 TRUE        1 TRUE  
    ##  8  0.642   0.864 TRUE        1 TRUE  
    ##  9  0.446   0.228 TRUE        1 TRUE  
    ## 10 -0.374  -0.682 FALSE       0 FALSE 
    ## # ... with 990 more rows
…
